time, windspeed, humidity, temperature, pressure, rain, snow, clouds, status 
00:16,1.5,81,10.27,1020,0,0,11,clouds
00:42,1,81,9.85,1020,0,0,91,clouds
01:07,1,87,9.58,1020,0,0,91,clouds
01:32,1.5,87,9.34,1020,0,0,63,clouds
02:06,1,87,9.22,1020,0,0,63,clouds
02:32,1,93,9.05,1020,0,0,69,clouds
03:05,1.63,93,8.92,1020,0,0,69,clouds
03:32,1,93,9.27,1020,0,0,77,clouds
04:06,1,93,9.35,1020,0,0,77,clouds
04:32,1,93,10.54,1020,0,0,80,clouds
05:05,1,93,10.93,1020,0,0,80,clouds
05:32,1,93,11.7,1020,0,0,83,clouds
06:06,1,81,13.77,1020,0,0,83,clouds
06:32,1.5,76,15.06,1019,0,0,56,clouds
07:06,1,72,17.04,1019,0,0,56,clouds
07:32,1,59,18.41,1019,0,0,55,clouds
08:06,1,55,18.72,1019,0,0,36,clouds
08:32,1.5,52,19.56,1019,0,0,40,clouds
09:06,2.1,45,20.65,1018,0,0,40,clouds
09:32,2.6,45,19.53,1018,0,0,20,clouds
10:05,2.6,46,20.89,1018,0,0,40,clouds
10:32,2.6,46,21.91,1018,0,0,40,clouds
11:05,3.1,46,22.37,1017,0,0,20,clouds
11:32,1.5,43,21.3,1017,0,0,16,clouds
12:07,2.1,43,22.34,1016,0,0,16,clouds
12:32,4.6,40,22.09,1016,0,0,0,clear
13:05,2.6,40,22.29,1016,0,0,0,clear
13:32,2.6,40,22.65,1015,0,0,0,clear
14:06,3.6,38,23.24,1015,0,0,0,clear
14:32,3.1,38,22.79,1015,0,0,2,clear
15:05,2.1,38,23.55,1015,0,0,2,clear
15:32,2.6,38,23.37,1014,0,0,2,clear
16:05,3.6,38,23.37,1014,0,0,2,clear
16:32,3.1,44,23.18,1014,0,0,3,clear
17:05,3.1,41,23.35,1014,0,0,3,clear
17:32,3.1,41,23.63,1014,0,0,5,clear
