time, windspeed, humidity, temperature, pressure, rain, snow, clouds, status
2020.05.25,3.6,81,10.33,clouds
2020.05.26,1.79,59,16.57,rain
2020.05.27,2.6,42,17.69,rain
2020.05.28,1.5,62,13.12,1027,0,0,75,clouds
2020.05.29,2.1,44,16.08,1025,0,0,41,clouds
2020.05.30,3.1,41,16.04,1020,{'1h': 0.23},0,27,rain
2020.05.31,4.1,77,15.22,1017,0,0,5,clear
2020.06.01,4.1,37,20.7,1020,0,0,2,clear
2020.06.02,4.1,48,17.68,1016,0,0,75,clouds
2020.06.03,3.6,56,20.73,1005,0,0,20,clouds
2020.06.04,2.6,46,22.29,996,0,0,75,clouds
2020.06.05,5.7,76,14.93,998,0,0,75,clouds
2020.06.06,5.7,63,18.56,1006,{'1h': 0.3},0,95,rain
2020.06.07,1.5,82,19.99,1007,0,0,75,clouds
2020.06.08,1,72,14.77,1014,0,0,90,clouds
2020.06.09,2.6,49,19.44,1013,0,0,75,clouds
2020.06.10,3.1,82,17.5,1011,0,0,90,rain
2020.06.11,1,64,21.28,1009,0,0,75,clouds
2020.06.12,3.1,54,26.26,1009,0,0,75,clouds
2020.06.13,2.6,51,27.51,1010,0,0,75,clouds
2020.06.14,3.1,100,19.17,1011,0,0,75,thunderstorm
2020.06.15,1.5,46,22.97,1013,0,0,48,clouds
2020.06.16,2.6,49,21.92,1013,0,0,92,clouds
2020.06.17,2.6,56,23.49,1011,0,0,75,clouds
2020.06.18,5.1,88,20.0,1009,0,0,90,rain
2020.06.19,6.7,93,15.22,1013,0,0,90,rain
2020.06.20,5.7,100,14.13,1016,0,0,90,rain
2020.06.21,4.6,93,16.2,1017,0,0,90,clouds
2020.06.22,6.7,43,22.68,1020,0,0,40,clouds
2020.06.23,4.1,40,22.57,1023,0,0,7,clear
2020.06.24,2.1,82,17.15,1023,0,0,40,rain
2020.06.25,5.1,46,23.48,1022,0,0,40,clouds
2020.06.26,3.1,73,21.3,1016,0,0,75,clouds
2020.06.27,3.6,54,28.26,1013,0,0,40,clouds
2020.06.28,2.6,48,27.63,1014,0,0,40,clouds
2020.06.29,2.1,93,18.21,1013,0,0,90,clouds
2020.06.30,5.1,43,23.27,1012,0,0,15,clouds
2020.07.01,2.6,44,27.37,1011,0,0,20,clouds
2020.07.02,2.1,54,26.07,1011,0,0,75,clouds
2020.07.03,5.1,68,21.32,1016,0,0,75,clouds
2020.07.04,3.1,43,23.83,1018,0,0,38,clouds
2020.07.05,6.7,45,27.64,1014,0,0,40,clouds
2020.07.06,5.1,88,18.35,1012,0,0,75,clouds
2020.07.07,2.6,55,18.04,1019,0,0,75,clouds
2020.07.08,2.1,59,16.16,1016,0,0,100,rain
2020.07.09,2.1,77,20.57,1017,0,0,75,clouds
2020.07.10,5.7,35,31.08,1010,{'1h': 0.26},0,16,rain
2020.07.11,3.6,93,14.14,1022,0,0,90,rain
2020.07.12,2.6,55,17.2,1026,0,0,75,clouds
2020.07.13,2.1,37,20.0,1024,0,0,7,clear
2020.07.14,2.1,43,22.34,1016,0,0,16,clouds
